[gd_scene load_steps=4 format=1]

[ext_resource path="res://Resources/Enemy.gd" type="Script" id=1]
[ext_resource path="res://Art/Enemy.png" type="Texture" id=2]

[sub_resource type="ConvexPolygonShape2D" id=1]

custom_solver_bias = 0.0
points = Vector2Array( -0.325676, -14.515, 11.0619, -8.38324, 11.3539, 7.96815, 0.842278, 14.0999, -11.4213, 7.67616, -11.7132, -8.09125 )

[node name="Enemy" type="KinematicBody2D"]

input/pickable = false
shapes/0/shape = SubResource( 1 )
shapes/0/transform = Matrix32( 1, 0, 0, 1, 0, 0 )
shapes/0/trigger = false
collision/layers = 1
collision/mask = 1
collision/margin = 0.08
script/script = ExtResource( 1 )

[node name="Sprite" type="Sprite" parent="."]

visibility/light_mask = 2
texture = ExtResource( 2 )

[node name="Shape" type="CollisionPolygon2D" parent="."]

build_mode = 0
polygon = Vector2Array( -0.325676, -14.515, 11.0619, -8.38324, 11.3539, 7.96815, 0.842278, 14.0999, -11.4213, 7.67616, -11.7132, -8.09125 )
shape_range = Vector2( 0, 0 )
trigger = false


