[gd_scene load_steps=8 format=1]

[ext_resource path="res://Resources/Walls.tres" type="TileSet" id=1]
[ext_resource path="res://Scenes/Player.tscn" type="PackedScene" id=2]
[ext_resource path="res://Scenes/Finish.tscn" type="PackedScene" id=3]
[ext_resource path="res://Scenes/Light.tscn" type="PackedScene" id=4]
[ext_resource path="res://Scenes/Spike.tscn" type="PackedScene" id=5]
[ext_resource path="res://Resources/Main.fnt" type="BitmapFont" id=6]
[ext_resource path="res://Scenes/GUI.tscn" type="PackedScene" id=7]

[node name="Root" type="Node2D"]

[node name="TileMap" type="TileMap" parent="."]

mode = 0
tile_set = ExtResource( 1 )
cell/size = Vector2( 32, 32 )
cell/quadrant_size = 16
cell/custom_transform = Matrix32( 1, 0, 0, 1, 0, 0 )
cell/half_offset = 2
cell/tile_origin = 0
cell/y_sort = false
collision/use_kinematic = false
collision/friction = 1.0
collision/bounce = 0.0
collision/layers = 1
collision/mask = 1
occluder/light_mask = 1
tile_data = IntArray( 0, 1, 1, 1, 2, 1, 3, 1, 4, 1, 5, 1, 6, 1, 7, 1, 8, 1, 9, 1, 10, 1, 11, 1, 12, 1, 13, 1, 14, 1, 15, 1, 16, 1, 17, 1, 18, 1, 19, 1, 20, 1, 21, 1, 22, 1, 23, 1, 24, 1, 25, 1, 26, 1, 27, 1, 28, 1, 29, 1, 30, 1, 31, 1, 65536, 1, 65566, 6, 65567, 1, 131072, 1, 131103, 1, 196608, 1, 196639, 1, 262144, 1, 262145, 1, 262146, 1, 262147, 1, 262148, 1, 262149, 1, 262150, 1, 262151, 1, 262152, 1, 262153, 1, 262154, 1, 262155, 1, 262156, 1, 262157, 1, 262158, 1, 262159, 1, 262160, 1, 262161, 1, 262162, 1, 262163, 1, 262164, 1, 262165, 1, 262169, 1, 262170, 1, 262171, 1, 262172, 1, 262173, 1, 262174, 1, 262175, 1, 327680, 1, 327681, 5, 327705, 1, 327706, 5, 327710, 6, 327711, 1, 393216, 1, 393241, 1, 393247, 1, 458752, 1, 458777, 1, 458778, 3, 458782, 4, 458783, 1, 524288, 1, 524295, 1, 524296, 1, 524297, 1, 524298, 1, 524299, 1, 524300, 1, 524301, 1, 524302, 1, 524303, 1, 524304, 1, 524305, 1, 524306, 1, 524307, 1, 524308, 1, 524309, 1, 524313, 1, 524314, 1, 524315, 1, 524316, 1, 524317, 1, 524318, 1, 524319, 1, 589824, 1, 589825, 3, 589849, 1, 589850, 5, 589854, 6, 589855, 1, 655360, 1, 655361, 1, 655362, 3, 655376, 1, 655377, 1, 655378, 3, 655384, 1, 655385, 1, 655391, 1, 720896, 1, 720897, 1, 720898, 1, 720899, 3, 720914, 6, 720915, 3, 720927, 1, 786432, 1, 786433, 1, 786434, 1, 786435, 1, 786436, 3, 786451, 6, 786452, 3, 786462, 4, 786463, 1, 851968, 1, 851969, 1, 851970, 1, 851971, 1, 851972, 1, 851973, 1, 851974, 1, 851975, 1, 851976, 1, 851977, 1, 851978, 1, 851979, 1, 851980, 1, 851981, 1, 851982, 1, 851983, 1, 851988, 6, 851989, 1, 851990, 1, 851991, 1, 851992, 1, 851993, 1, 851994, 1, 851995, 1, 851996, 1, 851997, 1, 851998, 1, 851999, 1, 917504, 1, 917505, 5, 917534, 6, 917535, 1, 983040, 1, 983071, 1, 1048576, 1, 1048607, 1, 1114112, 1, 1114142, 4, 1114143, 1, 1179648, 1, 1179649, 1, 1179650, 1, 1179651, 1, 1179652, 1, 1179653, 1, 1179654, 1, 1179655, 1, 1179656, 1, 1179657, 1, 1179658, 1, 1179659, 1, 1179660, 1, 1179661, 1, 1179662, 1, 1179663, 1, 1179664, 1, 1179665, 1, 1179666, 1, 1179667, 1, 1179668, 1, 1179669, 1, 1179670, 1, 1179671, 1, 1179672, 1, 1179673, 1, 1179674, 1, 1179675, 1, 1179676, 1, 1179677, 1, 1179678, 1, 1179679, 1 )

[node name="Player" parent="." instance=ExtResource( 2 )]

transform/pos = Vector2( 64, 64 )

[node name="Finish" parent="." instance=ExtResource( 3 )]

[node name="Light" parent="." instance=ExtResource( 4 )]

transform/pos = Vector2( 512, 288 )

[node name="Spike" parent="." instance=ExtResource( 5 )]

transform/pos = Vector2( 224, 384 )

[node name="Spike4" parent="." instance=ExtResource( 5 )]

transform/pos = Vector2( 416, 544 )

[node name="Spike5" parent="." instance=ExtResource( 5 )]

transform/pos = Vector2( 224, 224 )

[node name="Spike1" parent="." instance=ExtResource( 5 )]

transform/pos = Vector2( 480, 544 )

[node name="Spike2" parent="." instance=ExtResource( 5 )]

transform/pos = Vector2( 448, 544 )

[node name="Control" type="Control" parent="."]

focus/ignore_mouse = false
focus/stop_mouse = true
size_flags/horizontal = 2
size_flags/vertical = 2
margin/left = 32.0
margin/top = 32.0
margin/right = 928.0
margin/bottom = 128.0

[node name="Text" type="RichTextLabel" parent="Control"]

focus/ignore_mouse = false
focus/stop_mouse = true
size_flags/horizontal = 2
size_flags/vertical = 2
margin/left = 32.0
margin/top = 0.0
margin/right = 896.0
margin/bottom = 64.0
custom_fonts/normal_font = ExtResource( 6 )
bbcode/enabled = false
bbcode/bbcode = "The more you move and jump the more the ligth will fade out"
visible_characters = -1

[node name="GUI" parent="." instance=ExtResource( 7 )]


