[gd_scene load_steps=2 format=1]

[ext_resource path="res://Art/Light.png" type="Texture" id=1]

[node name="Light" type="Light2D"]

transform/pos = Vector2( 480, 256 )
enabled = true
editor_only = false
texture = ExtResource( 1 )
offset = Vector2( 0, 0 )
scale = 40.0
color = Color( 1, 1, 1, 1 )
energy = 0.0
mode = 1
range/height = 0.0
range/z_min = -1024
range/z_max = 1024
range/layer_min = 0
range/layer_max = 0
range/item_mask = 1
shadow/enabled = false
shadow/color = Color( 0, 0, 0, 0 )
shadow/buffer_size = 2048
shadow/esm_multiplier = 80.0
shadow/item_mask = 1


