[gd_scene load_steps=3 format=1]

[ext_resource path="res://Art/Spikes.png" type="Texture" id=1]

[sub_resource type="RectangleShape2D" id=1]

custom_solver_bias = 0.0
extents = Vector2( 15, 8 )

[node name="Spike" type="Node2D"]

[node name="Spike" type="Sprite" parent="."]

transform/pos = Vector2( 16, 16 )
texture = ExtResource( 1 )

[node name="SpikeBody" type="StaticBody2D" parent="."]

input/pickable = false
shapes/0/shape = SubResource( 1 )
shapes/0/transform = Matrix32( 1, 0, 0, 1, 16, 24 )
shapes/0/trigger = false
collision/layers = 1
collision/mask = 1
constant_linear_velocity = Vector2( 0, 0 )
constant_angular_velocity = 0.0
friction = 1.0
bounce = 0.0

[node name="Shape" type="CollisionShape2D" parent="SpikeBody"]

transform/pos = Vector2( 16, 24 )
shape = SubResource( 1 )
trigger = false
_update_shape_index = 0


